p1_results
…
Figure A1 shows that perceived deservingness of incarcerated people centers near 46 on a 0–100 scale (SD ≈ 28), with modest right skew. Roughly 8 % of respondents report having been incarcerated, 31 % know someone who has, and 12 % report victimization (Table A2)

Figure A1. Density of Dependent

# A tibble: 2,189 × 1
   d_incppl_pris_abc
               <dbl>
 1                58
 2               100
 3                83
 4                50
 5                20
 6                 0
 7                84
 8                22
 9                50
10                50
# ℹ 2,179 more rows
…
